^D:\SKILLBOX\C++\SKILLBOX-C-PLUS-PLUS\MODULE 15\DEBUG\MODULE 15.OBJ
D:\SKILLBOX\C++\SKILLBOX-C-PLUS-PLUS\MODULE 15\DEBUG\MODULE 15.EXE
D:\SKILLBOX\C++\SKILLBOX-C-PLUS-PLUS\MODULE 15\DEBUG\MODULE 15.ILK
D:\SKILLBOX\C++\SKILLBOX-C-PLUS-PLUS\MODULE 15\DEBUG\MODULE 15.PDB
